<?xml version="1.0" encoding="UTF-8"?>
<svg xmlns="http://www.w3.org/2000/svg" xmlns:xlink="http://www.w3.org/1999/xlink" width="75pt" height="74.999997pt" viewBox="0 0 75 74.999997" version="1.2">
<defs>
<g>
<symbol overflow="visible" id="glyph0-0">
<path style="stroke:none;" d=""/>
</symbol>
<symbol overflow="visible" id="glyph0-1">
<path style="stroke:none;" d="M 12.609375 -16.421875 C 11.703125 -16.421875 10.90625 -15.832031 10.21875 -14.65625 C 9.539062 -13.488281 9.203125 -12.097656 9.203125 -10.484375 L 9.203125 -0.65625 L 11.796875 -0.65625 L 11.796875 0 L 0.359375 0 L 0.359375 -0.65625 L 2.375 -0.65625 L 2.375 -16.78125 L 0.359375 -16.78125 L 0.359375 -17.453125 L 9.203125 -17.453125 L 9.203125 -13.921875 C 9.515625 -15.171875 10.125 -16.128906 11.03125 -16.796875 C 11.9375 -17.472656 12.960938 -17.8125 14.109375 -17.8125 C 15.253906 -17.8125 16.1875 -17.488281 16.90625 -16.84375 C 17.632812 -16.195312 18 -15.28125 18 -14.09375 C 18 -12.90625 17.726562 -11.992188 17.1875 -11.359375 C 16.65625 -10.722656 15.832031 -10.40625 14.71875 -10.40625 C 13.601562 -10.40625 12.78125 -10.769531 12.25 -11.5 C 11.726562 -12.238281 11.664062 -13.253906 12.0625 -14.546875 L 13.375 -14.546875 C 13.988281 -15.796875 13.734375 -16.421875 12.609375 -16.421875 Z M 12.609375 -16.421875 "/>
</symbol>
<symbol overflow="visible" id="glyph0-2">
<path style="stroke:none;" d="M 9.203125 -17.453125 L 9.203125 -3.15625 C 9.203125 0.851562 8.507812 3.90625 7.125 6 C 5.75 8.101562 3.492188 9.15625 0.359375 9.15625 C -1.660156 9.15625 -3.140625 8.753906 -4.078125 7.953125 C -5.023438 7.148438 -5.5 6.207031 -5.5 5.125 C -5.5 4.050781 -5.179688 3.226562 -4.546875 2.65625 C -3.910156 2.082031 -3.113281 1.796875 -2.15625 1.796875 C -1.207031 1.796875 -0.492188 2.054688 -0.015625 2.578125 C 0.460938 3.109375 0.703125 3.691406 0.703125 4.328125 C 0.703125 4.960938 0.625 5.570312 0.46875 6.15625 L -0.921875 6.15625 C -1.304688 6.8125 -1.359375 7.375 -1.078125 7.84375 C -0.796875 8.3125 -0.285156 8.546875 0.453125 8.546875 C 1.203125 8.546875 1.707031 8.125 1.96875 7.28125 C 2.238281 6.4375 2.375 4.691406 2.375 2.046875 L 2.375 -16.78125 L 0 -16.78125 L 0 -17.453125 Z M 5.71875 -19.984375 C 4.425781 -19.984375 3.503906 -20.3125 2.953125 -20.96875 C 2.398438 -21.625 2.125 -22.441406 2.125 -23.421875 C 2.125 -24.398438 2.421875 -25.207031 3.015625 -25.84375 C 3.617188 -26.476562 4.53125 -26.796875 5.75 -26.796875 C 6.976562 -26.796875 7.910156 -26.507812 8.546875 -25.9375 C 9.179688 -25.363281 9.5 -24.546875 9.5 -23.484375 C 9.5 -22.421875 9.191406 -21.570312 8.578125 -20.9375 C 7.960938 -20.300781 7.007812 -19.984375 5.71875 -19.984375 Z M 5.71875 -19.984375 "/>
</symbol>
<symbol overflow="visible" id="glyph0-3">
<path style="stroke:none;" d="M 0.359375 -17.453125 L 9.203125 -17.453125 L 9.203125 -14.078125 C 10.003906 -16.566406 11.78125 -17.8125 14.53125 -17.8125 C 17.28125 -17.8125 18.945312 -16.492188 19.53125 -13.859375 C 20.394531 -16.492188 22.191406 -17.8125 24.921875 -17.8125 C 28.515625 -17.8125 30.3125 -15.769531 30.3125 -11.6875 L 30.3125 -0.65625 L 32.375 -0.65625 L 32.375 0 L 22.21875 0 L 22.21875 -0.65625 L 23.5 -0.65625 L 23.5 -12.578125 C 23.5 -14.429688 23.335938 -15.515625 23.015625 -15.828125 C 22.867188 -15.984375 22.675781 -16.0625 22.4375 -16.0625 C 21.726562 -16.0625 21.101562 -15.582031 20.5625 -14.625 C 20.019531 -13.675781 19.75 -12.46875 19.75 -11 L 19.75 -0.65625 L 21.078125 -0.65625 L 21.078125 0 L 11.65625 0 L 11.65625 -0.65625 L 12.9375 -0.65625 L 12.9375 -12.578125 C 12.9375 -14.429688 12.78125 -15.515625 12.46875 -15.828125 C 12.320312 -15.984375 12.125 -16.0625 11.875 -16.0625 C 11.1875 -16.0625 10.566406 -15.539062 10.015625 -14.5 C 9.472656 -13.457031 9.203125 -12.21875 9.203125 -10.78125 L 9.203125 -0.65625 L 10.515625 -0.65625 L 10.515625 0 L 0.359375 0 L 0.359375 -0.65625 L 2.375 -0.65625 L 2.375 -16.78125 L 0.359375 -16.78125 Z M 0.359375 -17.453125 "/>
</symbol>
<symbol overflow="visible" id="glyph0-4">
<path style="stroke:none;" d="M 4.8125 0.359375 C 3.75 0.359375 2.957031 0.0507812 2.4375 -0.5625 C 1.914062 -1.1875 1.65625 -1.941406 1.65625 -2.828125 C 1.65625 -3.722656 1.925781 -4.476562 2.46875 -5.09375 C 3.019531 -5.707031 3.796875 -6.015625 4.796875 -6.015625 C 5.804688 -6.015625 6.601562 -5.753906 7.1875 -5.234375 C 7.769531 -4.722656 8.0625 -3.953125 8.0625 -2.921875 C 8.0625 -1.898438 7.785156 -1.097656 7.234375 -0.515625 C 6.691406 0.0664062 5.882812 0.359375 4.8125 0.359375 Z M 4.8125 0.359375 "/>
</symbol>
<symbol overflow="visible" id="glyph1-0">
<path style="stroke:none;" d=""/>
</symbol>
<symbol overflow="visible" id="glyph1-1">
<path style="stroke:none;" d="M 6.0625 0.453125 C 4.726562 0.453125 3.726562 0.0625 3.0625 -0.71875 C 2.40625 -1.5 2.078125 -2.445312 2.078125 -3.5625 C 2.078125 -4.6875 2.421875 -5.632812 3.109375 -6.40625 C 3.796875 -7.175781 4.769531 -7.5625 6.03125 -7.5625 C 7.289062 -7.5625 8.289062 -7.238281 9.03125 -6.59375 C 9.769531 -5.945312 10.140625 -4.976562 10.140625 -3.6875 C 10.140625 -2.394531 9.789062 -1.378906 9.09375 -0.640625 C 8.40625 0.0859375 7.394531 0.453125 6.0625 0.453125 Z M 6.0625 0.453125 "/>
</symbol>
</g>
</defs>
<g id="surface1">
<g style="fill:rgb(100%,100%,100%);fill-opacity:1;">
  <use xlink:href="#glyph0-1" x="2.76224" y="49.326653"/>
</g>
<g style="fill:rgb(100%,100%,100%);fill-opacity:1;">
  <use xlink:href="#glyph0-2" x="20.909514" y="49.326653"/>
</g>
<g style="fill:rgb(100%,100%,100%);fill-opacity:1;">
  <use xlink:href="#glyph0-3" x="32.311137" y="49.326653"/>
</g>
<g style="fill:rgb(100%,100%,100%);fill-opacity:1;">
  <use xlink:href="#glyph0-4" x="64.866247" y="49.326653"/>
</g>
<g style="fill:rgb(99.21875%,49.01886%,0%);fill-opacity:1;">
  <use xlink:href="#glyph1-1" x="20.513759" y="28.936553"/>
</g>
<g style="fill:rgb(99.21875%,49.01886%,0%);fill-opacity:1;">
  <use xlink:href="#glyph1-1" x="63.417906" y="50.188662"/>
</g>
</g>
</svg>
